In Class Exercise 05 – ISSS622-GAA
…
Now, we will compute the local Gi* by using the code chunk below.

HCSA <- wm_idw %>% 
  mutate(local_Gi = local_gstar_perm(
    GDPPC, nb, wts, nsim = 99),
         .before = 1) %>%
  unnest(local_Gi)
HCSA

Simple feature collection with 88 features and 18 fields
Geometry type: POLYGON
Dimension:     XY
Bounding box:  xmin: 108.7831 ymin: 24.6342 xmax: 114.2544 ymax: 30.12812
Geodetic CRS:  WGS 84
# A tibble: 88 × 19
    gi_star cluster     e_gi  var_gi std_dev p_value p_sim p_folded_sim skewness
      <dbl> <fct>      <dbl>   <dbl>   <dbl>   <dbl> <dbl>        <dbl>    <dbl>
 1  0.261   Low     0.00129  1.55e-7   0.163 8.70e-1  0.64         0.32    0.924
 2 -0.276   Low     0.000995 7.50e-8  -0.194 8.46e-1  1            0.5     0.911
 3  0.00573 High    0.00161  3.35e-7  -0.138 8.90e-1  0.88         0.44    1.27 
 4  0.528   High    0.00147  2.89e-7   0.488 6.25e-1  0.42         0.21    1.33 
 5  0.466   High    0.00129  1.42e-7   0.768 4.43e-1  0.32         0.16    1.19 
 6 -0.445   High    0.000952 7.86e-8  -0.416 6.78e-1  0.8          0.4     0.999
 7  2.99    High    0.000688 4.55e-8   3.01  2.58e-3  0.06         0.03    1.23 
 8  2.04    High    0.00145  1.21e-7   2.25  2.47e-2  0.08         0.04    0.872
 9  4.42    High    0.00125  8.43e-8   5.16  2.48e-7  0.02         0.01    0.830
10  1.21    Low     0.00192  2.19e-7   0.763 4.45e-1  0.52         0.26    0.719
# ℹ 78 more rows
# ℹ 10 more variables: kurtosis <dbl>, nb <nb>, wts <list>, NAME_2 <chr>,
#   ID_3 <int>, NAME_3 <chr>, ENGTYPE_3 <chr>, County <chr>, GDPPC <dbl>,
#   geometry <POLYGON [°]>
…
